Assignment: Methodology
…
Text tokenized and stopwords removed:

usenet_words <- cleaned_text %>%
  unnest_tokens(word, text) %>%
  filter(str_detect(word, "[a-z']$"),
         !word %in% stop_words$word)

Count word stems:

usenet_words %>%
  mutate(word=wordStem(word))%>%
  count(word, sort = TRUE)

# A tibble: 3,891 x 2
   word        n
   <chr>   <int>
 1 gastech  1422
 2 krono    1401
 3 govern    896
 4 titl      845
 5 pok       715
 6 polic     604
 7 abila     545
 8 ga        504
 9 peopl     480
10 elodi     459
# ... with 3,881 more rows
…
